…
Pairwise concurvity:

``` r
model_concurvity(m, pairwise = TRUE)
```

    # A tibble: 75 × 4
       .type .term .with .concurvity
       <chr> <chr> <chr>       <dbl>
     1 worst para  para     1   e+ 0
     2 worst para  s(x0)    4.28e-31
     3 worst para  s(x1)    3.05e-31
     4 worst para  s(x2)    2.95e-31
     5 worst para  s(x3)    4.67e-31
     6 worst s(x0) para     3.45e-31
     7 worst s(x0) s(x0)    1   e+ 0
     8 worst s(x0) s(x1)    6.60e- 2
     9 worst s(x0) s(x2)    8.55e- 2
    10 worst s(x0) s(x3)    5.08e- 2
    # ℹ 65 more rows
…
